%YAML 1.1
%TAG !u! tag:unity3d.com,2011:
--- !u!1045 &1
EditorBuildSettings:
  m_ObjectHideFlags: 0
  serializedVersion: 2
  m_Scenes:
  - enabled: 1
    path: Assets/Scenes/StartMenue.unity
    guid: 9b301b95e1b892b428949066176bcf98
  - enabled: 1
    path: Assets/Scenes/Level1.unity
    guid: 2cda990e2423bbf4892e6590ba056729
  - enabled: 1
    path: Assets/Scenes/Credits.unity
    guid: ded2ee01ffe824e60ab89ebd3bb2351b
  m_configObjects: {}
